<?xml version="1.0" encoding="utf-8"?>
<!-- Generator: Adobe Illustrator 21.1.0, SVG Export Plug-In . SVG Version: 6.00 Build 0)  -->
<svg version="1.1" id="Layer_1" xmlns="http://www.w3.org/2000/svg" xmlns:xlink="http://www.w3.org/1999/xlink" x="0px" y="0px"
	 viewBox="0 0 49 49" style="enable-background:new 0 0 49 49;" xml:space="preserve">
<style type="text/css">
	.st0{fill:none;stroke:#FFFFFF;stroke-miterlimit:10;}
</style>
<path class="st0" d="M24.5,0.5c-13.3,0-24,10.7-24,24c0,13.3,10.7,24,24,24c13.3,0,24-10.7,24-24C48.5,11.2,37.8,0.5,24.5,0.5z
	 M31,24.5h-4.5c0,6.7,0,15,0,15h-6c0,0,0-8.2,0-15h-3v-6h3v-2.7c0-2.5,1.2-6.3,6.3-6.3l4.6,0v5.1c0,0-2.8,0-3.4,0
	c-0.5,0-1.3,0.3-1.3,1.4v2.4h4.8L31,24.5z"/>
</svg>
