<?xml version="1.0" encoding="utf-8"?>
<!-- Generator: Adobe Illustrator 21.1.0, SVG Export Plug-In . SVG Version: 6.00 Build 0)  -->
<svg version="1.1" id="Layer_1" xmlns="http://www.w3.org/2000/svg" xmlns:xlink="http://www.w3.org/1999/xlink" x="0px" y="0px"
	 viewBox="0 0 49 49" style="enable-background:new 0 0 49 49;" xml:space="preserve">
<style type="text/css">
	.st0{fill:none;stroke:#FFFFFF;stroke-miterlimit:10;}
</style>
<circle class="st0" cx="24.5" cy="24.5" r="24"/>
<g>
	<g id="Lozenge_5_">
		<g>
			<path class="st0" d="M39.2,18.2c0,0-0.3-2.2-1.2-3.1c-1.1-1.2-2.4-1.3-3-1.3c-4.2-0.3-10.5-0.3-10.5-0.3h0c0,0-6.3,0-10.5,0.3
				c-0.6,0.1-1.9,0.1-3,1.3c-0.9,0.9-1.2,3.1-1.2,3.1s-0.3,2.5-0.3,5.1v2.4c0,2.5,0.3,5.1,0.3,5.1s0.3,2.2,1.2,3.1
				c1.1,1.2,2.6,1.2,3.3,1.3c2.4,0.2,10.2,0.3,10.2,0.3s6.3,0,10.5-0.3c0.6-0.1,1.9-0.1,3-1.3c0.9-0.9,1.2-3.1,1.2-3.1
				s0.3-2.5,0.3-5.1v-2.4C39.5,20.8,39.2,18.2,39.2,18.2z M21.4,28.6l0-8.8l8.1,4.4L21.4,28.6z"/>
		</g>
	</g>
</g>
</svg>
